Binomial Generalized Linear Models: Caesarian Birth Study – MAST90084 - Statistical Modelling Scripts
…
?caesar

Data Transformation

The raw caesar dataset has one row per combination of covariates and response. For binomial regression, we need to aggregate the data: one row per unique combination of covariates (noplan, factor, antib), with columns for total cases and infection counts in each group.

First, convert to a tibble (a modern take on data frames in Hadley Wickham’s tidyverse) for clearer printing, and easier data manipulation; for instance, see this vignette for some of the advantages of tibble over the traditional data.frame. At the very least, tibble prints the data types of each column.

Code

caesar_tbl <- as_tibble(caesar)
caesar_tbl

# A tibble: 24 × 7
   y         w noplan factor       antib          yl patco
   <fct> <dbl> <fct>  <fct>        <fct>       <dbl> <dbl>
 1 3        87 not    risk factors antibiotics     0     1
 2 1         4 not    risk factors antibiotics     1     1
 3 2         7 not    risk factors antibiotics     1     1
 4 2        13 not    risk factors without         1     2
 5 1        10 not    risk factors without         1     2
 6 3         3 not    risk factors without         0     2
 7 2         0 not    without      antibiotics     1     3
 8 3         0 not    without      antibiotics     0     3
 9 1         0 not    without      antibiotics     1     3
10 2         0 not    without      without         1     4
# ℹ 14 more rows
…
