Multinomial Logistic Regression: Caesarian Dataset Analysis – MAST90084 - Statistical Modelling Scripts
…
Code

caesar_long <- caes_dat |>
    select(-size) |>
    pivot_longer(
        cols = noInf:Inf2,
        names_to = "inf_type",
        values_to = "w"
    ) |>
    mutate(inf_type = factor(inf_type, levels = c("noInf", "Inf1", "Inf2")))

caesar_long

# A tibble: 21 × 5
   NoPlan Antib RiskF inf_type     w
    <dbl> <dbl> <dbl> <fct>    <dbl>
 1      0     0     0 noInf       32
 2      0     0     0 Inf1         4
 3      0     0     0 Inf2         4
 4      0     0     1 noInf       30
 5      0     0     1 Inf1        11
 6      0     0     1 Inf2        17
 7      0     1     0 noInf        2
 8      0     1     0 Inf1         0
 9      0     1     0 Inf2         0
10      0     1     1 noInf       17
# ℹ 11 more rows
…
