Conditional Models: Happiness Data – MAST90084 - Statistical Modelling Scripts
…
Loading required package: stats4

Loading required package: splines

We load the happy dataset from the Fahrmeir package, which contains data on happiness levels. As usual, we will convert it to a tibble first.

Code

data(happy)
happy_tbl <- as_tibble(happy)
happy_tbl

# A tibble: 24 × 4
   Rep.happiness School Sex       n
   <ord>         <fct>  <fct> <int>
 1 Not to happy  <12    Males    40
 2 Not to happy  12     Males    21
 3 Not to happy  13-16  Males    14
 4 Not to happy  >16    Males     3
 5 Pretty happy  <12    Males   131
 6 Pretty happy  12     Males   116
 7 Pretty happy  13-16  Males   112
 8 Pretty happy  >16    Males    27
 9 Very happy    <12    Males    82
10 Very happy    12     Males    61
# ℹ 14 more rows
…
