Marginal Models: Ohio Respiratory Data – MAST90084 - Statistical Modelling Scripts
…
Note

Previously we have mentioned that the geepack implements its geeglm function differently to the gee function in the gee package. Here we load it simply to access the ohio dataset.

As always it is a good practice to inspect the help page for the dataset before proceeding by running ?ohio.

We convert the dataset to a tibble, and inspect it.

Code

ohio_tbl <- as_tibble(ohio)
ohio_tbl

# A tibble: 2,148 × 4
    resp    id   age smoke
   <int> <int> <int> <int>
 1     0     0    -2     0
 2     0     0    -1     0
 3     0     0     0     0
 4     0     0     1     0
 5     0     1    -2     0
 6     0     1    -1     0
 7     0     1     0     0
 8     0     1     1     0
 9     0     2    -2     0
10     0     2    -1     0
# ℹ 2,138 more rows

The age and smoke variables are currently integers, but should instead be factors. We convert them to factors before fitting models.

Code

ohio_tbl <- ohio_tbl %>%
  mutate(
    age = as.factor(age),
    smoke = as.factor(smoke)
  )
ohio_tbl

# A tibble: 2,148 × 4
    resp    id age   smoke
   <int> <int> <fct> <fct>
 1     0     0 -2    0    
 2     0     0 -1    0    
 3     0     0 0     0    
 4     0     0 1     0    
 5     0     1 -2    0    
 6     0     1 -1    0    
 7     0     1 0     0    
 8     0     1 1     0    
 9     0     2 -2    0    
10     0     2 -1    0    
# ℹ 2,138 more rows
…
